[gd_scene load_steps=6 format=2]

[ext_resource path="res://materials/other/Big Black Outline.tres" type="Material" id=1]
[ext_resource path="res://gltf/Rooftop Shack A/Rooftop Shack A.glb" type="PackedScene" id=2]
[ext_resource path="res://materials/mid/Bright Red.tres" type="Material" id=3]
[ext_resource path="res://materials/mid/Shiny Silver.tres" type="Material" id=4]



[sub_resource type="SpatialMaterial" id=1]
next_pass = ExtResource( 1 )
params_diffuse_mode = 4
params_specular_mode = 3
albedo_color = Color( 0.411765, 0.407843, 0.384314, 1 )
metallic_specular = 0.0
roughness = 0.1

[node name="Rooftop Shack A" instance=ExtResource( 2 )]

[node name="Cube" parent="." index="0"]
material/0 = SubResource( 1 )

[node name="Cube001" parent="." index="1"]
material/0 = ExtResource( 4 )

[node name="Plane" parent="." index="2"]
material/0 = ExtResource( 3 )
